{
  "info": {
    "_postman_id": "bea9aa47-c92e-4ea4-8199-060b07a5067c",
    "name": "Sample Collection 191",
    "description": "This is just a sample collection.",
    "schema": "https://schema.getpostman.com/json/collection/v2.0.0/collection.json"
  },
  "item": [
    {
      "name": "This is a folder",
      "item": [
        {
          "name": "Sample POST Request",
          "_postman_id": "350f1f9c-88fa-4aca-a964-683789d4cd94",
          "request": {
            "method": "POST",
            "header": [
              {
                "key": "Content-Type",
                "value": "application/json"
              }
            ],
            "body": {
              "mode": "raw",
              "raw": "{\"data\": \"123\"}",
              "options": {
                "raw": {}
              }
            },
            "url": "https://postman-echo.com/post",
            "description": "This is a sample POST Request"
          },
          "response": []
        }
      ],
      "_postman_id": "7d820182-ce8c-4628-9ca8-0d2ae5c03a9f"
    },
    {
      "name": "Sample GET Request",
      "_postman_id": "c4d81858-02fc-4791-bb40-41f0eaed9980",
      "request": {
        "method": "GET",
        "header": [],
        "url": "https://postman-echo/get",
        "description": "This is a sample GET Request"
      },
      "response": []
    }
  ]
}