{
  "info": {
    "_postman_id": "6c0835c1-0e00-4846-b3bc-736066ac5102",
    "name": "Newman",
    "schema": "https://schema.getpostman.com/json/collection/v2.0.0/collection.json"
  },
  "item": [
    {
      "name": "PDP",
      "item": [
        {
          "name": "001",
          "event": [
            {
              "listen": "test",
              "script": {
                "id": "c39c9d1b-741e-4765-b656-2ca7d8e7a542",
                "exec": [
                  "pm.test(\"Response time is less than 200ms\", function () {",
                  "    pm.expect(pm.response.responseTime).to.be.below(200);",
                  "});"
                ],
                "type": "text/javascript"
              }
            }
          ],
          "_postman_id": "3decd42a-e979-4867-a4b8-c57c59b85710",
          "protocolProfileBehavior": {
            "disableBodyPruning": true
          },
          "request": {
            "method": "GET",
            "header": [],
            "url": "https://postman-echo.com/get"
          },
          "response": []
        },
        {
          "name": "004",
          "event": [
            {
              "listen": "test",
              "script": {
                "id": "c39c9d1b-741e-4765-b656-2ca7d8e7a542",
                "exec": [
                  "pm.test(\"Response time is less than 200ms\", function () {",
                  "    pm.expect(pm.response.responseTime).to.be.below(200);",
                  "});"
                ],
                "type": "text/javascript"
              }
            }
          ],
          "_postman_id": "ed9f98f1-756e-4db7-aaef-2592eba437c2",
          "protocolProfileBehavior": {
            "disableBodyPruning": true
          },
          "request": {
            "method": "GET",
            "header": [],
            "url": "https://postman-echo.com/get"
          },
          "response": []
        }
      ],
      "_postman_id": "49d73f38-7833-474f-89d9-9fbdd51c718c"
    },
    {
      "name": "KDK",
      "item": [
        {
          "name": "002",
          "event": [
            {
              "listen": "test",
              "script": {
                "id": "c39c9d1b-741e-4765-b656-2ca7d8e7a542",
                "exec": [
                  "pm.test(\"Response time is less than 200ms\", function () {",
                  "    pm.expect(pm.response.responseTime).to.be.below(200);",
                  "});"
                ],
                "type": "text/javascript"
              }
            }
          ],
          "_postman_id": "c87f1ac7-c8dd-4d75-b33e-26d7d5efadaa",
          "protocolProfileBehavior": {
            "disableBodyPruning": true
          },
          "request": {
            "method": "GET",
            "header": [],
            "url": "https://postman-echo.com/get"
          },
          "response": []
        }
      ],
      "_postman_id": "676c008b-74a1-47e3-8948-b0e5c339a871"
    }
  ]
}